
	 <!-- 파라미터 인코딩 처리해주는 필터 추가 -->
	  <filter>
	    <filter-name>encodingFilter</filter-name>
	    <filter-class>org.springframework.web.filter.CharacterEncodingFilter</filter-class>
	    <init-param>
	      <param-name>encoding</param-name>
	      <param-value>utf-8</param-value>
	    </init-param>
	  </filter>
	  <filter-mapping>
	    <filter-name>encodingFilter</filter-name>
	    <url-pattern>/*</url-pattern>
	  </filter-mapping>
	  
	  
------------------------------
<?xml version="1.0" encoding="UTF-8"?>
<project xmlns="http://maven.apache.org/POM/4.0.0" xmlns:xsi="http://www.w3.org/2001/XMLSchema-instance"
	xsi:schemaLocation="http://maven.apache.org/POM/4.0.0 https://maven.apache.org/maven-v4_0_0.xsd">
	<modelVersion>4.0.0</modelVersion>
	<groupId>com.jurib</groupId>
	<artifactId>myapp</artifactId>
	<name>spring5_step03_mvc_user</name>
	<packaging>war</packaging>
	<version>1.0.0-BUILD-SNAPSHOT</version>
	<properties>
	    <java-version>11</java-version>
        <m2eclipse.wtp.contextRoot>myapp</m2eclipse.wtp.contextRoot>
        <!-- maven compiler plugin version :: https://maven.apache.org/plugins/maven-compiler-plugin/examples/set-compiler-source-and-target.html -->
        <maven.compiler.source>${java-version}</maven.compiler.source>
        <maven.compiler.target>${java-version}</maven.compiler.target>
        
        <org.springframework-version>5.3.28</org.springframework-version>
        <org.aspectj-version>1.9.19</org.aspectj-version>
        <log4j-version>1.2.17</log4j-version>
        <org.slf4j-version>1.7.36</org.slf4j-version>
        
        <h2db-version>2.1.214</h2db-version>
        <mybatis-version>3.5.9</mybatis-version>
        <mybatis-spring-version>2.1.1</mybatis-spring-version>
    
        <servlet-version>4.0.1</servlet-version>
        <jsp-version>2.3.3</jsp-version>
        <jstl-version>1.2</jstl-version>

        <commons-dbcp2-version>2.9.0</commons-dbcp2-version>
        <jackson-databind-version>2.13.5</jackson-databind-version>

        <lombok-version>1.18.26</lombok-version>
        <junit-version>4.13.2</junit-version>
        
	</properties>
	<dependencies>
        <!-- Spring -->
        <dependency>
            <groupId>org.springframework</groupId>
            <artifactId>spring-context</artifactId>
            <version>${org.springframework-version}</version>
            <exclusions>
                <!-- Exclude Commons Logging in favor of SLF4j -->
                <exclusion>
                    <groupId>commons-logging</groupId>
                    <artifactId>commons-logging</artifactId>
                 </exclusion>
            </exclusions>
        </dependency>
        <dependency>
            <groupId>org.springframework</groupId>
            <artifactId>spring-webmvc</artifactId>
            <version>${org.springframework-version}</version>
        </dependency>
        
        <!-- https://mvnrepository.com/artifact/org.springframework/spring-jdbc -->
        <dependency>
            <groupId>org.springframework</groupId>
            <artifactId>spring-jdbc</artifactId>
            <version>${org.springframework-version}</version>
        </dependency>        
        <!-- https://mvnrepository.com/artifact/org.springframework/spring-tx -->
        <dependency>
            <groupId>org.springframework</groupId>
            <artifactId>spring-tx</artifactId>
            <version>${org.springframework-version}</version>
        </dependency>
                
        <!-- AspectJ :: AOP -->
        <dependency>
            <groupId>org.aspectj</groupId>
            <artifactId>aspectjrt</artifactId>
            <version>${org.aspectj-version}</version>
        </dependency>
        <dependency>
            <groupId>org.aspectj</groupId>
            <artifactId>aspectjweaver</artifactId>
            <version>${org.aspectj-version}</version>
        </dependency>    
        
        <!-- Logging -->
        <dependency>
            <groupId>org.slf4j</groupId>
            <artifactId>slf4j-api</artifactId>
            <version>${org.slf4j-version}</version>
        </dependency>
        <dependency>
            <groupId>org.slf4j</groupId>
            <artifactId>jcl-over-slf4j</artifactId>
            <version>${org.slf4j-version}</version>
            <scope>runtime</scope>
        </dependency>
        <dependency>
            <groupId>org.slf4j</groupId>
            <artifactId>slf4j-log4j12</artifactId>
            <version>${org.slf4j-version}</version>
            <scope>runtime</scope>
        </dependency>
        <dependency>
            <groupId>log4j</groupId>
            <artifactId>log4j</artifactId>
            <version>${log4j-version}</version>
            <exclusions>
                <exclusion>
                    <groupId>javax.mail</groupId>
                    <artifactId>mail</artifactId>
                </exclusion>
                <exclusion>
                    <groupId>javax.jms</groupId>
                    <artifactId>jms</artifactId>
                </exclusion>
                <exclusion>
                    <groupId>com.sun.jdmk</groupId>
                    <artifactId>jmxtools</artifactId>
                </exclusion>
                <exclusion>
                    <groupId>com.sun.jmx</groupId>
                    <artifactId>jmxri</artifactId>
                </exclusion>
            </exclusions>
            <scope>runtime</scope>
        </dependency>

        <!-- @Inject -->
        <dependency>
            <groupId>javax.inject</groupId>
            <artifactId>javax.inject</artifactId>
            <version>1</version>
        </dependency>
                
        <!-- Servlet -->
        <!-- https://mvnrepository.com/artifact/javax.servlet/javax.servlet-api -->
        <dependency>
            <groupId>javax.servlet</groupId>
            <artifactId>javax.servlet-api</artifactId>
            <version>${servlet-version}</version>
            <scope>provided</scope>
        </dependency>
        
        <!-- JSP -->
        <!-- https://mvnrepository.com/artifact/javax.servlet.jsp/javax.servlet.jsp-api -->
        <dependency>
            <groupId>javax.servlet.jsp</groupId>
            <artifactId>javax.servlet.jsp-api</artifactId>
            <version>${jsp-version}</version>
            <scope>provided</scope>
        </dependency>

        <!-- JSTL -->
        <dependency>
            <groupId>javax.servlet</groupId>
            <artifactId>jstl</artifactId>
            <version>${jstl-version}</version>
        </dependency>
    
        <!-- Test -->
        <!-- https://mvnrepository.com/artifact/junit/junit -->
        <dependency>
            <groupId>junit</groupId>
            <artifactId>junit</artifactId>
            <version>${junit-version}</version>
        </dependency>
        
        <dependency>
            <groupId>org.springframework</groupId>
            <artifactId>spring-test</artifactId>
            <version>${org.springframework-version}</version>
        </dependency>

        <!-- Lombok -->
        <!-- https://mvnrepository.com/artifact/org.projectlombok/lombok -->
        <dependency>
            <groupId>org.projectlombok</groupId>
            <artifactId>lombok</artifactId>
            <version>${lombok-version}</version>
            <scope>provided</scope>
        </dependency>

        <!-- h2db & MyBatis -->
		<!-- https://mvnrepository.com/artifact/com.h2database/h2 -->
		<dependency>
		    <groupId>com.h2database</groupId>
		    <artifactId>h2</artifactId>
		    <version>${h2db-version}</version>
		</dependency>

        <!-- https://mvnrepository.com/artifact/org.mybatis/mybatis -->
        <dependency>
            <groupId>org.mybatis</groupId>
            <artifactId>mybatis</artifactId>
            <version>${mybatis-version}</version>
        </dependency>
        
        <!-- https://mvnrepository.com/artifact/org.mybatis/mybatis-spring -->
        <dependency>
            <groupId>org.mybatis</groupId>
            <artifactId>mybatis-spring</artifactId>
            <version>${mybatis-spring-version}</version>
        </dependency>
        
        <!-- Datasource. -->
        <!-- https://mvnrepository.com/artifact/org.apache.commons/commons-dbcp2 -->
        <dependency>
            <groupId>org.apache.commons</groupId>
            <artifactId>commons-dbcp2</artifactId>
            <version>${commons-dbcp2-version}</version>
        </dependency>
        
        <!-- JSON -->
        <!-- https://mvnrepository.com/artifact/com.fasterxml.jackson.core/jackson-databind -->
        <dependency>
            <groupId>com.fasterxml.jackson.core</groupId>
            <artifactId>jackson-databind</artifactId>
            <version>${jackson-databind-version}</version>
        </dependency>	  
	</dependencies>
    <build>
        <plugins>
            <plugin>
                <artifactId>maven-eclipse-plugin</artifactId>
                <version>2.9</version>
                <configuration>
                    <additionalProjectnatures>
                        <projectnature>org.springframework.ide.eclipse.core.springnature</projectnature>
                    </additionalProjectnatures>
                    <additionalBuildcommands>
                        <buildcommand>org.springframework.ide.eclipse.core.springbuilder</buildcommand>
                    </additionalBuildcommands>
                    <downloadSources>true</downloadSources>
                    <downloadJavadocs>true</downloadJavadocs>
                </configuration>
            </plugin>
            <!-- maven compiler plugin version :: https://maven.apache.org/plugins/maven-compiler-plugin/examples/set-compiler-source-and-target.html -->
            <plugin>
                <groupId>org.apache.maven.plugins</groupId>
                <artifactId>maven-compiler-plugin</artifactId>
                <version>3.10.1</version>
                <configuration>
                    <source>${java-version}</source>
                    <target>${java-version}</target>
                    <compilerArgument>-Xlint:all</compilerArgument>
                    <showWarnings>true</showWarnings>
                    <showDeprecation>true</showDeprecation>
                </configuration>
            </plugin>
            <plugin>
                <groupId>org.codehaus.mojo</groupId>
                <artifactId>exec-maven-plugin</artifactId>
                <version>1.2.1</version>
                <configuration>
                    <mainClass>org.test.int1.Main</mainClass>
                </configuration>
            </plugin>
        </plugins>
    </build>
</project>



-------------------------boot

		<!--  jsp 사용 -->
        <dependency>
            <groupId>org.apache.tomcat.embed</groupId>
            <artifactId>tomcat-embed-jasper</artifactId>
        </dependency>
        <dependency>
            <groupId>javax.servlet</groupId>
            <artifactId>jstl</artifactId>
        </dependency> 

        <!-- AspectJ :: AOP -->
        <dependency>
            <groupId>org.aspectj</groupId>
            <artifactId>aspectjrt</artifactId>
        </dependency>
        <dependency>
            <groupId>org.aspectj</groupId>
            <artifactId>aspectjweaver</artifactId>
        </dependency> 